<svg width="90" height="90" viewBox="0 0 90 90" fill="none" xmlns="http://www.w3.org/2000/svg">
<g opacity="0.6" clip-path="url(#clip0_9692_316163)">
<path fill-rule="evenodd" clip-rule="evenodd" d="M8.4375 45.3054C8.4375 25.2698 24.8071 9.02777 45 9.02777C65.1932 9.02777 81.5625 25.2698 81.5625 45.3054C81.5625 65.3413 65.1932 81.5831 45 81.5831C24.8071 81.5831 8.4375 65.3413 8.4375 45.3054ZM45 0.656006C20.1472 0.656006 0 20.6462 0 45.3054C0 69.9647 20.1472 89.9548 45 89.9548C69.8529 89.9548 90 69.9647 90 45.3054C90 20.6462 69.8529 0.656006 45 0.656006ZM35.8797 29.8298C34.9424 29.2718 33.75 29.9417 33.75 31.0263V59.5849C33.75 60.6693 34.9424 61.339 35.8797 60.7809L59.8652 46.5019C60.7753 45.9599 60.7753 44.6509 59.8652 44.109L35.8797 29.8298Z" fill="white"/>
</g>
<defs>
<clipPath id="clip0_9692_316163">
<rect width="90" height="89.2988" fill="white" transform="translate(0 0.656006)"/>
</clipPath>
</defs>
</svg>
